%YAML 1.1
%TAG !u! tag:unity3d.com,2011:
--- !u!1045 &1
EditorBuildSettings:
  m_ObjectHideFlags: 0
  serializedVersion: 2
  m_Scenes:
  - enabled: 1
    path: Assets/Scenes/Menu.unity
    guid: dc4703225071652428691ebcaa6c83a3
  - enabled: 1
    path: Assets/Scenes/Playground_B_wk5.unity
    guid: db48234ad08cd064fbfab3aaaedd60c6
  - enabled: 1
    path: Assets/Scenes/GameOver.unity
    guid: 92f27a861d64892409c19c3a3e9c3516
  - enabled: 0
    path: 
    guid: 00000000000000000000000000000000
  - enabled: 0
    path: 
    guid: 00000000000000000000000000000000
  - enabled: 1
    path: Assets/Scenes/GameOver.unity
    guid: 92f27a861d64892409c19c3a3e9c3516
  m_configObjects: {}
